<svg width="90" height="120" viewBox="0 0 90 120" fill="none" xmlns="http://www.w3.org/2000/svg">
<path d="M24.2597 119.689H82.5831L70.1321 81.9211C81.8198 75.7616 89.7917 63.4625 89.7917 49.295C89.7917 28.9557 73.3614 12.4674 53.0937 12.4674C32.826 12.4674 16.3958 28.9557 16.3958 49.295C16.3958 63.4625 24.3677 75.7616 36.0554 81.9211L24.2597 119.689Z" fill="url(#paint0_linear)"/>
<path d="M39.695 24.441C28.5669 24.441 21.952 31.2736 17.1622 34.4937C16.6561 34.834 16.025 35.1807 16.0373 35.5646C16.0487 35.9185 17.1622 36.9949 17.1622 36.9949C20.2297 40.0176 27.0294 45.1002 38.1583 45.1002C49.2877 45.1002 52.5111 40.6684 62.2279 38.1075C63.6548 37.7314 64.212 36.5456 62.2279 34.4937C59.1602 31.4712 50.8236 24.441 39.695 24.441Z" stroke="#72A5E3" stroke-width="3"/>
<ellipse cx="39.6961" cy="35.1661" rx="8.9706" ry="8.54669" fill="white" stroke="#72A5E3" stroke-width="3"/>
<path d="M68.603 109.2V110.7H70.6769L70.0276 108.731L68.603 109.2ZM10.2795 109.2L8.8477 108.753L8.23956 110.7H10.2795V109.2ZM22.0753 71.432L23.507 71.8792L23.8793 70.6872L22.7746 70.105L22.0753 71.432ZM56.1519 71.432L55.4526 70.105L54.33 70.6966L54.7273 71.9016L56.1519 71.432ZM68.603 107.7H10.2795V110.7H68.603V107.7ZM3.91565 38.8059C3.91565 19.29 19.6793 3.47827 39.1136 3.47827V0.478271C18.0125 0.478271 0.915649 17.6431 0.915649 38.8059H3.91565ZM39.1136 3.47827C58.5479 3.47827 74.3115 19.29 74.3115 38.8059H77.3115C77.3115 17.6431 60.2147 0.478271 39.1136 0.478271V3.47827ZM22.7746 70.105C11.5615 64.1956 3.91565 52.397 3.91565 38.8059H0.915649C0.915649 53.5498 9.21347 66.3493 21.3759 72.759L22.7746 70.105ZM20.6435 70.9848L8.8477 108.753L11.7113 109.647L23.507 71.8792L20.6435 70.9848ZM74.3115 38.8059C74.3115 52.397 66.6656 64.1956 55.4526 70.105L56.8512 72.759C69.0137 66.3493 77.3115 53.5498 77.3115 38.8059H74.3115ZM54.7273 71.9016L67.1784 109.67L70.0276 108.731L57.5765 70.9623L54.7273 71.9016Z" fill="#72A5E3"/>
<defs>
<linearGradient id="paint0_linear" x1="0.727033" y1="66.8128" x2="169.525" y2="34.3902" gradientUnits="userSpaceOnUse">
<stop offset="0.240222" stop-color="#CEF0FF"/>
<stop offset="1" stop-color="#7DFFFF"/>
</linearGradient>
</defs>
</svg>
