<svg width="199" height="70" viewBox="0 0 199 70" fill="none" xmlns="http://www.w3.org/2000/svg">
<path d="M193.5 39C196.897 34.4902 201 26.1429 193.5 18.4013C181 5.50002 124.488 8.94682 108.749 17.4818C104.127 18.7168 102.444 19.3341 97.0526 18.4014C87.7182 16.7866 78.4818 11.7225 69.4655 8.81112C53.9909 3.81442 34.1546 3.60963 18.8228 9.32163C5.8683 14.1479 -0.096469 22.6342 2.86173 36.0097C9.00816 63.8009 40.7294 61.2262 63.8734 58.2865C71.2042 57.3553 86.0242 52.0391 93.4334 51.9383C115.036 51.6443 136.117 58.5859 157.938 55.482C176.419 52.8532 185 50.2826 193.5 39Z" fill="#9CC1FF"/>
</svg>
