<svg width="105" height="46" viewBox="0 0 105 46" fill="none" xmlns="http://www.w3.org/2000/svg">
<path d="M4.50011 6.49997C10.9702 -1.5652 26.5825 0.0234454 32.0001 1.5C41.906 4.19981 52.9401 7.20205 66 4.5C80.5 1.5 94 3.5 100.5 13.5C105.95 21.8847 106.809 30.2742 100.5 37C96.7248 41.0248 90.5569 39.538 86.5 38.5C76.2351 35.8735 68.1808 34.2174 58 40.055C52.5073 43.2044 45 45.625 35.5 45.5C24.8837 45.3603 12.47 40.4181 5.99999 32C-1.98175 21.615 0.0878379 12 4.50011 6.49997Z" fill="#9CC1FF"/>
</svg>
