<svg width="160" height="160" viewBox="0 0 160 160" fill="none" xmlns="http://www.w3.org/2000/svg">
<path d="M109.953 79.4889L101.029 68.1718L99.9136 67.5586H88.7585L87.5872 68.4506L85.3562 72.9663L82.6232 73.022L80.2248 68.4506L78.8862 67.5586H67.7311L66.6156 68.2276L57.6915 79.4331L57.4126 80.6039L59.8667 92.9802L60.1456 93.5934L68.4562 103.684L68.7908 103.796L82.9578 112.158H84.408L98.575 103.796L98.9096 103.573L107.22 93.5377L107.499 92.9244L109.953 80.6039V79.4889Z" fill="url(#paint0_linear)"/>
<path d="M81.0056 53.3983C80.5594 53.3983 80.2247 53.5656 79.9458 53.9001C79.667 54.1788 79.5554 54.5691 79.5554 55.015C79.7785 57.691 80.4478 61.5934 82.2326 65.0499C82.5673 65.6631 83.1808 66.0534 83.9059 66.0534C84.631 66.0534 85.2445 65.6631 85.5792 65.0499C87.364 61.5934 88.0333 57.691 88.2564 55.015C88.3122 54.6248 88.1449 54.2346 87.866 53.9001C87.5871 53.5656 87.1967 53.3983 86.8062 53.3983H81.0056Z" fill="url(#paint1_linear)"/>
<path d="M80.0097 26.2021C64.6156 26.2021 52.9585 20.5714 52.9585 13.101C52.9585 5.63066 64.5598 0 80.0097 0C95.4595 0 107.061 5.63066 107.061 13.101C107.061 20.5714 95.4037 26.2021 80.0097 26.2021ZM80.0097 3.90244C66.4004 3.90244 56.8628 8.75261 56.8628 13.101C56.8628 17.4495 66.3446 22.2996 80.0097 22.2996C93.6747 22.2996 103.157 17.4495 103.157 13.101C103.157 8.75261 93.6189 3.90244 80.0097 3.90244Z" fill="#72A5E3"/>
<path d="M80.1212 126.829C79.3403 126.829 78.7268 126.104 78.7268 125.324L78.7826 114.955C78.7826 114.174 79.3961 113.449 80.177 113.449C80.9578 113.449 81.5714 114.174 81.5714 114.955L81.5156 125.38C81.5156 126.104 80.8463 126.829 80.1212 126.829Z" fill="#72A5E3"/>
<path d="M97.6907 120.975C97.1887 120.975 96.7425 120.697 96.4636 120.251L91.4438 111.275C91.0534 110.606 91.3323 109.77 92.0016 109.38C92.6709 108.989 93.5075 109.268 93.898 109.937L98.9178 118.913C99.3082 119.582 99.0293 120.418 98.36 120.808C98.1927 120.92 97.9696 120.975 97.6907 120.975Z" fill="#72A5E3"/>
<path d="M111.077 107.819C110.743 107.819 110.464 107.707 110.185 107.484L102.209 100.962C101.596 100.46 101.54 99.5679 102.042 99.0104C102.544 98.3972 103.436 98.3414 103.994 98.8432L111.97 105.366C112.583 105.868 112.639 106.76 112.137 107.317C111.858 107.652 111.468 107.819 111.077 107.819Z" fill="#72A5E3"/>
<path d="M62.8313 120.976C62.6081 120.976 62.385 120.92 62.1619 120.808C61.4926 120.418 61.2695 119.582 61.6042 118.913L66.624 109.937C67.0144 109.268 67.8511 109.045 68.5204 109.38C69.1897 109.77 69.4128 110.606 69.0781 111.275L64.0583 120.251C63.7794 120.753 63.3332 120.976 62.8313 120.976Z" fill="#72A5E3"/>
<path d="M49.445 107.819C49.0546 107.819 48.6641 107.651 48.3853 107.317C47.8833 106.704 47.9948 105.867 48.5526 105.366L56.5285 98.843C57.142 98.3413 57.9787 98.4528 58.4806 99.0103C58.9826 99.6235 58.8711 100.46 58.3133 100.961L50.3374 107.484C50.1143 107.763 49.7797 107.819 49.445 107.819Z" fill="#72A5E3"/>
<path d="M106.113 76.432L97.1885 65.3379L96.073 64.9477H84.9179L83.7466 65.6167L81.5714 69.8536V65.5052C81.5714 64.7247 80.9578 64.1115 80.177 64.1115C79.3961 64.1115 78.7826 64.7247 78.7826 65.5052V70.0209L76.3842 65.6724L75.0456 65.0034H63.8905L62.775 65.4494L53.8509 76.5435L53.572 77.6585L56.0261 89.979L56.305 90.5923L64.6156 100.627L64.9502 100.962L79.1172 109.547H80.5674L94.7344 100.962L95.0691 100.627L103.38 90.5365L103.659 89.9233L106.113 77.6027V76.432ZM101.595 75.2613L93.1727 73.6445L91.8899 73.4215L96.1288 68.4599L101.595 75.2613ZM101.093 77.993L95.1248 81.3937L94.7902 81.6167L91.9456 76.2648L101.093 77.993ZM85.8661 67.7351H93.1727L88.5991 73.0871L82.6311 73.9233L85.8661 67.7351ZM74.3763 67.7351L77.6113 73.8675L76.9978 73.756L71.6433 73.0871L67.0697 67.7351H74.3763ZM64.1136 68.4041L68.3526 73.3658L58.6476 75.2055L64.1136 68.4041ZM68.2968 76.209L67.1813 78.2717L65.4522 81.5609L59.0938 77.993L68.2968 76.209ZM57.1417 80.0557L63.5001 83.6794L61.9941 84.7944L58.5918 87.3031L57.1417 80.0557ZM60.3766 89.3658L65.4522 85.6863L68.6314 92.9895L61.3806 89.8118L60.3766 89.3658ZM62.3846 93.2682L68.241 95.8327L68.5757 95.9999L66.1215 97.8397L62.3846 93.2682ZM68.4083 99.5679L71.0298 97.6167L75.2687 103.749L68.4083 99.5679ZM80.1212 105.812L72.5915 94.9407L70.5278 90.2578L67.6275 83.5679L69.6354 79.777L71.6991 75.7073L79.9539 76.7108H80.3443L88.5991 75.7073L90.6628 79.7212L92.6707 83.5679L89.7704 90.2578L87.7067 94.9964L80.1212 105.812ZM84.9737 103.749L86.3123 101.854L89.2126 97.6724L91.8341 99.6236L84.9737 103.749ZM94.0651 97.7839L91.611 95.9442L97.8021 93.2682L94.0651 97.7839ZM91.5552 92.9337L94.7344 85.6306L99.81 89.31L91.5552 92.9337ZM101.651 87.2473L100.256 86.2438L96.6866 83.6236L103.045 79.9999L101.651 87.2473Z" fill="#72A5E3"/>
<path d="M80.1213 66.23C78.3365 66.23 76.7748 65.2822 75.9382 63.7212C73.9302 59.8746 73.2052 55.5819 72.982 52.6272C72.8705 51.4564 73.2609 50.2857 74.0976 49.3937C74.8784 48.5017 76.0497 48 77.221 48H83.0774C84.2487 48 85.42 48.5017 86.2009 49.3937C86.9817 50.2857 87.3722 51.4564 87.3164 52.6272C87.0375 55.5261 86.3124 59.8746 84.3603 63.7212C83.4679 65.2265 81.9061 66.1742 80.1213 66.23ZM77.1652 50.8432C76.719 50.8432 76.3844 51.0105 76.1055 51.3449C75.8266 51.6237 75.7151 52.0139 75.7151 52.4599C75.9382 55.1359 76.6075 59.0383 78.3923 62.4948C78.7269 63.108 79.3405 63.4982 80.0656 63.4982C80.7906 63.4982 81.4042 63.108 81.7388 62.4948C83.5236 59.0383 84.1929 55.1359 84.416 52.4599C84.4718 52.0697 84.3045 51.6794 84.0256 51.3449C83.7467 51.0105 83.3563 50.8432 82.9659 50.8432H77.1652Z" fill="#72A5E3"/>
<path d="M159.155 46.1603C158.43 45.1011 157.259 44.4321 156.032 44.2648C144.821 42.9269 134.001 38.8014 124.686 32.3903L123.124 31.3311L122.009 32.8363C110.408 48.1115 97.3004 56.9199 83.97 58.3136C83.6353 59.5401 83.1891 60.7666 82.5756 61.9931C82.5198 62.1046 82.464 62.2161 82.4083 62.2161H82.7987L82.966 62.2718C97.4677 61.2126 111.635 52.4042 124.017 36.6272C133.499 42.8154 144.319 46.8293 155.586 48.1673C155.753 48.1673 155.865 48.2788 155.976 48.3903C156.144 48.6133 156.199 48.892 156.144 49.1708C150.008 74.2021 126.359 155.875 80.233 156.098H80.1215H79.9541C33.7162 155.875 10.0673 74.2021 3.932 49.1708C3.87622 48.892 3.932 48.6133 4.09932 48.3903C4.21088 48.2788 4.32242 48.1673 4.48975 48.1673C15.7006 46.8293 26.5769 42.8711 36.0587 36.683C48.4409 52.46 62.6079 61.3241 77.1096 62.3833H77.8347C77.7789 62.2718 77.7231 62.2161 77.6673 62.1046C77.0538 60.8781 76.6076 59.5958 76.2729 58.3694C62.8868 56.9756 49.668 48.223 38.0109 32.8363L36.8954 31.3311L35.3337 32.3903C26.0191 38.8014 15.1987 42.9269 3.98777 44.2648C2.70493 44.4321 1.58942 45.1011 0.864339 46.1603C0.0834801 47.3311 -0.195399 48.7248 0.139255 50.1185C6.4419 75.8188 30.8716 159.721 79.731 160C79.7868 160 79.8984 160 79.9541 160C80.0657 160 80.1215 160 80.1772 160C101.26 159.888 120.113 144.502 136.232 114.23C148.893 90.4809 156.422 63.8885 159.825 50.1185C160.215 48.7248 159.936 47.2753 159.155 46.1603Z" fill="#72A5E3"/>
<path d="M79.675 50.23H80.1213H80.3444C80.2328 50.23 80.1213 50.23 80.0097 50.23C79.8982 50.23 79.7866 50.1742 79.675 50.23Z" fill="#72A5E3"/>
<path d="M120.28 29.0453C116.71 26.4251 113.866 22.8571 112.025 18.8432C111.802 18.2299 111.579 17.6167 111.3 16.892C111.3 16.892 111.021 15.777 109.627 15.777C108.232 15.777 107.731 16.7247 107.731 16.7247C104.44 23.2474 93.0057 27.8188 79.9543 27.8188C66.9028 27.8188 55.4688 23.2474 52.178 16.7247C52.178 16.7247 51.7318 15.777 50.2816 15.777C49.1661 15.777 48.6641 16.8362 48.6641 16.8362C48.3853 17.5052 48.1622 18.1184 47.9391 18.7317C46.0985 22.7456 43.2539 26.3136 39.6843 28.9338L38.1226 30.1045L39.2938 31.6655C50.449 46.3832 63.0542 54.9686 75.7711 56.4738C75.4922 55.0801 75.3249 53.7979 75.2133 52.7386C75.2133 52.6271 75.2133 52.5156 75.2133 52.4599C64.3371 50.7874 53.4051 43.3728 43.5328 30.8292C46.5447 28.2648 49.0546 25.1428 50.8394 21.6306C56.2496 27.763 67.2932 31.6655 79.9543 31.6655C92.6153 31.6655 103.659 27.763 109.069 21.6306C110.854 25.1428 113.364 28.2648 116.376 30.8292C106.503 43.317 95.683 50.7317 84.8625 52.4599C84.8625 52.5714 84.8625 52.6829 84.8625 52.7944C84.751 53.8536 84.5836 55.1358 84.3048 56.4738C96.9658 54.9128 109.515 46.3275 120.615 31.6655L121.786 30.1045L120.28 29.0453Z" fill="#72A5E3"/>
<defs>
<linearGradient id="paint0_linear" x1="46.1961" y1="90.1637" x2="159.146" y2="52.8261" gradientUnits="userSpaceOnUse">
<stop offset="0.240222" stop-color="#CEF0FF"/>
<stop offset="1" stop-color="#7DFFFF"/>
</linearGradient>
<linearGradient id="paint1_linear" x1="77.6956" y1="59.8125" x2="97.7229" y2="55.9439" gradientUnits="userSpaceOnUse">
<stop offset="0.240222" stop-color="#CEF0FF"/>
<stop offset="1" stop-color="#7DFFFF"/>
</linearGradient>
</defs>
</svg>
