<svg width="57" height="57" viewBox="0 0 57 57" fill="none" xmlns="http://www.w3.org/2000/svg">
<circle cx="28.8725" cy="19.0328" r="9.20188" stroke="#72A5E3" stroke-width="2"/>
<path opacity="0.8" d="M45.1278 38.5716C41.0431 45.4582 33.9047 47.7441 29.5948 47.7441C24.7431 47.7441 17.5115 46.6797 12.5169 38.7217C12.3773 38.4993 12.3709 38.2837 12.4306 38.1386C13.3955 35.7916 16.3325 32.7581 20.9483 31.6764C21.1849 31.6209 21.5111 31.6872 21.856 31.9423C23.7054 33.3101 26.136 34.1244 28.775 34.1244C31.4299 34.1244 33.874 33.3003 35.7275 31.9174C36.0449 31.6806 36.3276 31.6168 36.5281 31.6528C38.7731 32.0564 40.7902 33.1828 42.343 34.5051C43.9172 35.8456 44.9093 37.296 45.2135 38.2446C45.2239 38.2773 45.2369 38.3877 45.1278 38.5716Z" stroke="#72A5E3" stroke-width="2"/>
</svg>
