<svg width="172" height="10" viewBox="0 0 172 10" fill="none" xmlns="http://www.w3.org/2000/svg">
<path d="M7.56 5.67886C7.56 6.21553 7.47333 6.70886 7.3 7.15886C7.13 7.60886 6.89 7.99553 6.58 8.31886C6.27 8.64219 5.89667 8.89386 5.46 9.07386C5.02333 9.25386 4.54 9.34386 4.01 9.34386C3.48 9.34386 2.99667 9.25386 2.56 9.07386C2.12667 8.89386 1.75333 8.64219 1.44 8.31886C1.12667 7.99553 0.883333 7.60886 0.71 7.15886C0.54 6.70886 0.455 6.21553 0.455 5.67886C0.455 5.14553 0.54 4.65386 0.71 4.20386C0.883333 3.75386 1.12667 3.36719 1.44 3.04386C1.75333 2.72053 2.12667 2.46886 2.56 2.28886C2.99667 2.10553 3.48 2.01386 4.01 2.01386C4.54 2.01386 5.02333 2.10553 5.46 2.28886C5.89667 2.46886 6.27 2.72053 6.58 3.04386C6.89 3.36719 7.13 3.75386 7.3 4.20386C7.47333 4.65386 7.56 5.14553 7.56 5.67886ZM6.505 5.67886C6.505 5.24886 6.44667 4.86219 6.33 4.51886C6.21333 4.17553 6.045 3.88553 5.825 3.64886C5.60833 3.40886 5.34667 3.22553 5.04 3.09886C4.73333 2.97219 4.39 2.90886 4.01 2.90886C3.63 2.90886 3.285 2.97219 2.975 3.09886C2.66833 3.22553 2.405 3.40886 2.185 3.64886C1.96833 3.88553 1.8 4.17553 1.68 4.51886C1.56333 4.86219 1.505 5.24886 1.505 5.67886C1.505 6.11219 1.56333 6.50053 1.68 6.84386C1.8 7.18719 1.96833 7.47719 2.185 7.71386C2.405 7.95053 2.66833 8.13219 2.975 8.25886C3.285 8.38553 3.63 8.44886 4.01 8.44886C4.39 8.44886 4.73333 8.38553 5.04 8.25886C5.34667 8.13219 5.60833 7.95053 5.825 7.71386C6.045 7.47719 6.21333 7.18719 6.33 6.84386C6.44667 6.50053 6.505 6.11219 6.505 5.67886ZM14.8926 2.90386H11.2426V5.15886H12.6026C13.0426 5.15886 13.4226 5.20719 13.7426 5.30386C14.0626 5.40053 14.3259 5.53553 14.5326 5.70886C14.7392 5.88219 14.8909 6.08886 14.9876 6.32886C15.0876 6.56553 15.1376 6.82386 15.1376 7.10386C15.1376 7.43386 15.0809 7.73219 14.9676 7.99886C14.8542 8.26553 14.6892 8.49386 14.4726 8.68386C14.2559 8.87053 13.9892 9.01553 13.6726 9.11886C13.3592 9.21886 13.0009 9.26886 12.5976 9.26886H10.2126V2.09386H14.8926V2.90386ZM11.2426 5.97886V8.44886H12.5976C12.8709 8.44886 13.1026 8.41886 13.2926 8.35886C13.4859 8.29553 13.6426 8.20886 13.7626 8.09886C13.8859 7.98886 13.9759 7.85886 14.0326 7.70886C14.0892 7.55553 14.1176 7.38719 14.1176 7.20386C14.1176 7.01053 14.0892 6.83886 14.0326 6.68886C13.9792 6.53553 13.8909 6.40719 13.7676 6.30386C13.6476 6.19719 13.4909 6.11719 13.2976 6.06386C13.1076 6.00719 12.8759 5.97886 12.6026 5.97886H11.2426ZM18.7535 6.61386V9.26886H17.7235V2.09386H19.8785C20.3352 2.09386 20.7318 2.14719 21.0685 2.25386C21.4085 2.36053 21.6885 2.51219 21.9085 2.70886C22.1318 2.90219 22.2985 3.13719 22.4085 3.41386C22.5185 3.68719 22.5735 3.99219 22.5735 4.32886C22.5735 4.66553 22.5152 4.97386 22.3985 5.25386C22.2818 5.53053 22.1102 5.77053 21.8835 5.97386C21.6568 6.17719 21.3752 6.33553 21.0385 6.44886C20.7052 6.55886 20.3185 6.61386 19.8785 6.61386H18.7535ZM18.7535 5.79386H19.8785C20.1485 5.79386 20.3868 5.75886 20.5935 5.68886C20.8035 5.61553 20.9785 5.51553 21.1185 5.38886C21.2585 5.25886 21.3635 5.10386 21.4335 4.92386C21.5068 4.74386 21.5435 4.54553 21.5435 4.32886C21.5435 4.10553 21.5085 3.90719 21.4385 3.73386C21.3718 3.55719 21.2685 3.40719 21.1285 3.28386C20.9918 3.16053 20.8185 3.06719 20.6085 3.00386C20.4018 2.93719 20.1585 2.90386 19.8785 2.90386H18.7535V5.79386ZM30.4504 9.26886H29.6504C29.5604 9.26886 29.4854 9.24719 29.4254 9.20386C29.3687 9.15719 29.3271 9.09719 29.3004 9.02386L28.6554 7.33886H25.4704L24.8254 9.02386C24.8021 9.08719 24.7587 9.14386 24.6954 9.19386C24.6354 9.24386 24.5621 9.26886 24.4754 9.26886H23.6804L26.5404 2.09386H27.5854L30.4504 9.26886ZM25.7554 6.59886H28.3704L27.2854 3.77386C27.2487 3.68386 27.2104 3.58053 27.1704 3.46386C27.1337 3.34386 27.0971 3.21386 27.0604 3.07386C27.0237 3.21386 26.9871 3.34386 26.9504 3.46386C26.9137 3.58386 26.8771 3.68886 26.8404 3.77886L25.7554 6.59886ZM36.8327 3.86386C36.8327 4.22053 36.7444 4.53553 36.5677 4.80886C36.3944 5.08219 36.1461 5.29719 35.8227 5.45386C36.0027 5.53053 36.1677 5.62553 36.3177 5.73886C36.4677 5.84886 36.5944 5.97219 36.6977 6.10886C36.8044 6.24553 36.8861 6.39553 36.9427 6.55886C37.0027 6.72219 37.0327 6.89553 37.0327 7.07886C37.0327 7.39553 36.9744 7.69053 36.8577 7.96386C36.7411 8.23719 36.5711 8.47719 36.3477 8.68386C36.1244 8.88719 35.8494 9.04719 35.5227 9.16386C35.1961 9.28053 34.8244 9.33886 34.4077 9.33886C33.8944 9.33886 33.4294 9.25386 33.0127 9.08386C32.5961 8.91386 32.2411 8.68553 31.9477 8.39886L32.2477 7.90886C32.2744 7.86886 32.3077 7.83719 32.3477 7.81386C32.3911 7.78719 32.4377 7.77386 32.4877 7.77386C32.5344 7.77386 32.5877 7.79219 32.6477 7.82886C32.7077 7.86219 32.7761 7.90553 32.8527 7.95886C32.9294 8.00886 33.0161 8.06553 33.1127 8.12886C33.2127 8.18886 33.3261 8.24553 33.4527 8.29886C33.5827 8.34886 33.7277 8.39219 33.8877 8.42886C34.0511 8.46219 34.2344 8.47886 34.4377 8.47886C34.9544 8.47886 35.3544 8.36053 35.6377 8.12386C35.9211 7.88719 36.0627 7.55386 36.0627 7.12386C36.0627 6.94053 36.0261 6.77386 35.9527 6.62386C35.8827 6.47053 35.7811 6.34053 35.6477 6.23386C35.5144 6.12386 35.3511 6.04053 35.1577 5.98386C34.9644 5.92386 34.7477 5.89386 34.5077 5.89386H33.5227L33.5177 5.04386H34.4577C34.6644 5.04386 34.8527 5.02053 35.0227 4.97386C35.1961 4.92386 35.3444 4.85219 35.4677 4.75886C35.5944 4.66553 35.6911 4.55219 35.7577 4.41886C35.8277 4.28219 35.8627 4.12553 35.8627 3.94886C35.8627 3.78886 35.8294 3.64386 35.7627 3.51386C35.6994 3.38053 35.6061 3.26719 35.4827 3.17386C35.3594 3.07719 35.2077 3.00386 35.0277 2.95386C34.8477 2.90053 34.6427 2.87386 34.4127 2.87386C34.1461 2.87386 33.9194 2.90219 33.7327 2.95886C33.5461 3.01553 33.3877 3.07719 33.2577 3.14386C33.1311 3.21053 33.0244 3.27219 32.9377 3.32886C32.8544 3.38553 32.7827 3.41386 32.7227 3.41386C32.6661 3.41386 32.6194 3.40219 32.5827 3.37886C32.5494 3.35219 32.5177 3.31053 32.4877 3.25386L32.2327 2.76386C32.5061 2.52386 32.8227 2.34053 33.1827 2.21386C33.5461 2.08386 33.9561 2.01886 34.4127 2.01886C34.7827 2.01886 35.1161 2.06553 35.4127 2.15886C35.7127 2.24886 35.9677 2.37553 36.1777 2.53886C36.3877 2.70219 36.5494 2.89719 36.6627 3.12386C36.7761 3.34719 36.8327 3.59386 36.8327 3.86386ZM46.3745 5.67886C46.3745 6.21553 46.2878 6.70886 46.1145 7.15886C45.9445 7.60886 45.7045 7.99553 45.3945 8.31886C45.0845 8.64219 44.7111 8.89386 44.2745 9.07386C43.8378 9.25386 43.3545 9.34386 42.8245 9.34386C42.2945 9.34386 41.8111 9.25386 41.3745 9.07386C40.9411 8.89386 40.5678 8.64219 40.2545 8.31886C39.9411 7.99553 39.6978 7.60886 39.5245 7.15886C39.3545 6.70886 39.2695 6.21553 39.2695 5.67886C39.2695 5.14553 39.3545 4.65386 39.5245 4.20386C39.6978 3.75386 39.9411 3.36719 40.2545 3.04386C40.5678 2.72053 40.9411 2.46886 41.3745 2.28886C41.8111 2.10553 42.2945 2.01386 42.8245 2.01386C43.3545 2.01386 43.8378 2.10553 44.2745 2.28886C44.7111 2.46886 45.0845 2.72053 45.3945 3.04386C45.7045 3.36719 45.9445 3.75386 46.1145 4.20386C46.2878 4.65386 46.3745 5.14553 46.3745 5.67886ZM45.3195 5.67886C45.3195 5.24886 45.2611 4.86219 45.1445 4.51886C45.0278 4.17553 44.8595 3.88553 44.6395 3.64886C44.4228 3.40886 44.1611 3.22553 43.8545 3.09886C43.5478 2.97219 43.2045 2.90886 42.8245 2.90886C42.4445 2.90886 42.0995 2.97219 41.7895 3.09886C41.4828 3.22553 41.2195 3.40886 40.9995 3.64886C40.7828 3.88553 40.6145 4.17553 40.4945 4.51886C40.3778 4.86219 40.3195 5.24886 40.3195 5.67886C40.3195 6.11219 40.3778 6.50053 40.4945 6.84386C40.6145 7.18719 40.7828 7.47719 40.9995 7.71386C41.2195 7.95053 41.4828 8.13219 41.7895 8.25886C42.0995 8.38553 42.4445 8.44886 42.8245 8.44886C43.2045 8.44886 43.5478 8.38553 43.8545 8.25886C44.1611 8.13219 44.4228 7.95053 44.6395 7.71386C44.8595 7.47719 45.0278 7.18719 45.1445 6.84386C45.2611 6.50053 45.3195 6.11219 45.3195 5.67886ZM49.027 9.26886V2.09386H51.347C51.7937 2.09386 52.177 2.13719 52.497 2.22386C52.817 2.31053 53.0804 2.43553 53.287 2.59886C53.4937 2.75886 53.6454 2.95553 53.742 3.18886C53.842 3.42219 53.892 3.68386 53.892 3.97386C53.892 4.14719 53.8637 4.31553 53.807 4.47886C53.7537 4.63886 53.672 4.78886 53.562 4.92886C53.452 5.06553 53.3137 5.19053 53.147 5.30386C52.9804 5.41386 52.7854 5.50386 52.562 5.57386C53.0787 5.67719 53.4687 5.86719 53.732 6.14386C53.9987 6.41719 54.132 6.77386 54.132 7.21386C54.132 7.52053 54.0754 7.80053 53.962 8.05386C53.8487 8.30386 53.6837 8.51886 53.467 8.69886C53.2504 8.87886 52.9837 9.01886 52.667 9.11886C52.3537 9.21886 51.9954 9.26886 51.592 9.26886H49.027ZM50.057 6.01886V8.44886H51.577C51.8504 8.44886 52.0837 8.41719 52.277 8.35386C52.4704 8.29053 52.6287 8.20386 52.752 8.09386C52.8754 7.98053 52.9654 7.84719 53.022 7.69386C53.082 7.54053 53.112 7.37219 53.112 7.18886C53.112 6.82886 52.9854 6.54386 52.732 6.33386C52.4787 6.12386 52.0937 6.01886 51.577 6.01886H50.057ZM50.057 5.28886H51.302C51.5687 5.28886 51.8004 5.26053 51.997 5.20386C52.1937 5.14719 52.3554 5.06719 52.482 4.96386C52.612 4.86053 52.7087 4.73553 52.772 4.58886C52.8354 4.44219 52.867 4.27886 52.867 4.09886C52.867 3.68553 52.742 3.38386 52.492 3.19386C52.2454 3.00053 51.8637 2.90386 51.347 2.90386H50.057V5.28886ZM62.5938 9.26886H61.7938C61.7038 9.26886 61.6288 9.24719 61.5688 9.20386C61.5121 9.15719 61.4704 9.09719 61.4438 9.02386L60.7988 7.33886H57.6138L56.9688 9.02386C56.9454 9.08719 56.9021 9.14386 56.8388 9.19386C56.7788 9.24386 56.7054 9.26886 56.6188 9.26886H55.8238L58.6838 2.09386H59.7288L62.5938 9.26886ZM57.8988 6.59886H60.5138L59.4288 3.77386C59.3921 3.68386 59.3538 3.58053 59.3138 3.46386C59.2771 3.34386 59.2404 3.21386 59.2038 3.07386C59.1671 3.21386 59.1304 3.34386 59.0938 3.46386C59.0571 3.58386 59.0204 3.68886 58.9838 3.77886L57.8988 6.59886ZM68.9777 2.09386V2.95886H66.6827V9.26886H65.6527V2.95886H63.3527V2.09386H68.9777ZM75.7557 2.09386V2.93386H72.3507V5.24386H75.0957V6.05386H72.3507V8.42886H75.7607L75.7557 9.26886H71.3157V2.09386H75.7557ZM83.8822 2.09386V9.26886H82.8472V2.90386H80.5422C80.4955 3.82053 80.4322 4.61719 80.3522 5.29386C80.2722 5.96719 80.1755 6.54219 80.0622 7.01886C79.9522 7.49553 79.8255 7.88553 79.6822 8.18886C79.5389 8.48886 79.3822 8.72386 79.2122 8.89386C79.0422 9.06386 78.8589 9.18053 78.6622 9.24386C78.4655 9.30719 78.2589 9.33886 78.0422 9.33886C77.8522 9.33886 77.7072 9.32053 77.6072 9.28386C77.5072 9.25053 77.4572 9.20053 77.4572 9.13386V8.47886H77.8122C77.9422 8.47886 78.0705 8.45386 78.1972 8.40386C78.3272 8.35386 78.4522 8.25219 78.5722 8.09886C78.6922 7.94553 78.8055 7.72553 78.9122 7.43886C79.0189 7.15219 79.1155 6.77219 79.2022 6.29886C79.2922 5.82553 79.3672 5.24553 79.4272 4.55886C79.4905 3.87219 79.5389 3.05053 79.5722 2.09386H83.8822ZM88.0023 2.09386V5.15886H89.3623C89.8023 5.15886 90.1823 5.20719 90.5023 5.30386C90.8223 5.40053 91.0857 5.53553 91.2923 5.70886C91.499 5.88219 91.6507 6.08886 91.7473 6.32886C91.8473 6.56553 91.8973 6.82386 91.8973 7.10386C91.8973 7.43386 91.8407 7.73219 91.7273 7.99886C91.614 8.26553 91.449 8.49386 91.2323 8.68386C91.0157 8.87053 90.749 9.01553 90.4323 9.11886C90.119 9.21886 89.7607 9.26886 89.3573 9.26886H86.9723V2.09386H88.0023ZM88.0023 5.97886V8.44886H89.3573C89.6307 8.44886 89.8623 8.41886 90.0523 8.35886C90.2457 8.29553 90.4023 8.20886 90.5223 8.09886C90.6457 7.98886 90.7357 7.85886 90.7923 7.70886C90.849 7.55553 90.8773 7.38719 90.8773 7.20386C90.8773 7.01053 90.849 6.83886 90.7923 6.68886C90.739 6.53553 90.6507 6.40719 90.5273 6.30386C90.4073 6.19719 90.2507 6.11719 90.0573 6.06386C89.8673 6.00719 89.6357 5.97886 89.3623 5.97886H88.0023ZM100.221 9.26886H99.1861V6.02386H95.4011V9.26886H94.3661V2.09386H95.4011V5.27386H99.1861V2.09386H100.221V9.26886ZM104.343 2.09386V5.15886H105.703C106.143 5.15886 106.523 5.20719 106.843 5.30386C107.163 5.40053 107.426 5.53553 107.633 5.70886C107.839 5.88219 107.991 6.08886 108.088 6.32886C108.188 6.56553 108.238 6.82386 108.238 7.10386C108.238 7.43386 108.181 7.73219 108.068 7.99886C107.954 8.26553 107.789 8.49386 107.573 8.68386C107.356 8.87053 107.089 9.01553 106.773 9.11886C106.459 9.21886 106.101 9.26886 105.698 9.26886H103.313V2.09386H104.343ZM104.343 5.97886V8.44886H105.698C105.971 8.44886 106.203 8.41886 106.393 8.35886C106.586 8.29553 106.743 8.20886 106.863 8.09886C106.986 7.98886 107.076 7.85886 107.133 7.70886C107.189 7.55553 107.218 7.38719 107.218 7.20386C107.218 7.01053 107.189 6.83886 107.133 6.68886C107.079 6.53553 106.991 6.40719 106.868 6.30386C106.748 6.19719 106.591 6.11719 106.398 6.06386C106.208 6.00719 105.976 5.97886 105.703 5.97886H104.343ZM110.543 9.26886H109.508V2.09386H110.543V9.26886ZM118.261 2.41886C118.311 2.33886 118.374 2.26553 118.451 2.19886C118.531 2.12886 118.621 2.09386 118.721 2.09386H119.491V9.26886H118.456V4.27886C118.456 4.13219 118.459 3.97886 118.466 3.81886C118.473 3.65553 118.489 3.48219 118.516 3.29886C118.456 3.45886 118.393 3.60553 118.326 3.73886C118.259 3.87219 118.194 3.99219 118.131 4.09886L114.866 8.94386C114.819 9.02386 114.756 9.09886 114.676 9.16886C114.596 9.23553 114.506 9.26886 114.406 9.26886H113.636V2.09386H114.671V7.08386C114.671 7.23053 114.668 7.38386 114.661 7.54386C114.654 7.70053 114.639 7.86886 114.616 8.04886C114.673 7.89219 114.734 7.74886 114.801 7.61886C114.871 7.48553 114.938 7.36719 115.001 7.26386L118.261 2.41886ZM116.596 1.14386C116.729 1.14386 116.843 1.13053 116.936 1.10386C117.029 1.07386 117.104 1.02719 117.161 0.963859C117.218 0.897193 117.258 0.810526 117.281 0.70386C117.308 0.597193 117.321 0.465526 117.321 0.30886H117.876C117.943 0.30886 117.993 0.33886 118.026 0.39886C118.063 0.455526 118.081 0.518859 118.081 0.58886C118.081 0.922193 117.949 1.17886 117.686 1.35886C117.423 1.53886 117.059 1.62886 116.596 1.62886C116.133 1.62886 115.769 1.53886 115.506 1.35886C115.243 1.17886 115.111 0.922193 115.111 0.58886C115.111 0.518859 115.128 0.455526 115.161 0.39886C115.198 0.33886 115.249 0.30886 115.316 0.30886H115.871C115.871 0.465526 115.883 0.597193 115.906 0.70386C115.933 0.810526 115.974 0.897193 116.031 0.963859C116.088 1.02719 116.161 1.07386 116.251 1.10386C116.344 1.13053 116.459 1.14386 116.596 1.14386ZM132.002 9.26886H130.967V2.90386H127.457V9.26886H126.422V2.09386H132.002V9.26886ZM141.76 5.67886C141.76 6.21553 141.673 6.70886 141.5 7.15886C141.33 7.60886 141.09 7.99553 140.78 8.31886C140.47 8.64219 140.096 8.89386 139.66 9.07386C139.223 9.25386 138.74 9.34386 138.21 9.34386C137.68 9.34386 137.196 9.25386 136.76 9.07386C136.326 8.89386 135.953 8.64219 135.64 8.31886C135.326 7.99553 135.083 7.60886 134.91 7.15886C134.74 6.70886 134.655 6.21553 134.655 5.67886C134.655 5.14553 134.74 4.65386 134.91 4.20386C135.083 3.75386 135.326 3.36719 135.64 3.04386C135.953 2.72053 136.326 2.46886 136.76 2.28886C137.196 2.10553 137.68 2.01386 138.21 2.01386C138.74 2.01386 139.223 2.10553 139.66 2.28886C140.096 2.46886 140.47 2.72053 140.78 3.04386C141.09 3.36719 141.33 3.75386 141.5 4.20386C141.673 4.65386 141.76 5.14553 141.76 5.67886ZM140.705 5.67886C140.705 5.24886 140.646 4.86219 140.53 4.51886C140.413 4.17553 140.245 3.88553 140.025 3.64886C139.808 3.40886 139.546 3.22553 139.24 3.09886C138.933 2.97219 138.59 2.90886 138.21 2.90886C137.83 2.90886 137.485 2.97219 137.175 3.09886C136.868 3.22553 136.605 3.40886 136.385 3.64886C136.168 3.88553 136 4.17553 135.88 4.51886C135.763 4.86219 135.705 5.24886 135.705 5.67886C135.705 6.11219 135.763 6.50053 135.88 6.84386C136 7.18719 136.168 7.47719 136.385 7.71386C136.605 7.95053 136.868 8.13219 137.175 8.25886C137.485 8.38553 137.83 8.44886 138.21 8.44886C138.59 8.44886 138.933 8.38553 139.24 8.25886C139.546 8.13219 139.808 7.95053 140.025 7.71386C140.245 7.47719 140.413 7.18719 140.53 6.84386C140.646 6.50053 140.705 6.11219 140.705 5.67886ZM145.442 6.61386V9.26886H144.412V2.09386H146.567C147.024 2.09386 147.421 2.14719 147.757 2.25386C148.097 2.36053 148.377 2.51219 148.597 2.70886C148.821 2.90219 148.987 3.13719 149.097 3.41386C149.207 3.68719 149.262 3.99219 149.262 4.32886C149.262 4.66553 149.204 4.97386 149.087 5.25386C148.971 5.53053 148.799 5.77053 148.572 5.97386C148.346 6.17719 148.064 6.33553 147.727 6.44886C147.394 6.55886 147.007 6.61386 146.567 6.61386H145.442ZM145.442 5.79386H146.567C146.837 5.79386 147.076 5.75886 147.282 5.68886C147.492 5.61553 147.667 5.51553 147.807 5.38886C147.947 5.25886 148.052 5.10386 148.122 4.92386C148.196 4.74386 148.232 4.54553 148.232 4.32886C148.232 4.10553 148.197 3.90719 148.127 3.73386C148.061 3.55719 147.957 3.40719 147.817 3.28386C147.681 3.16053 147.507 3.06719 147.297 3.00386C147.091 2.93719 146.847 2.90386 146.567 2.90386H145.442V5.79386ZM156.627 2.09386V2.95886H154.332V9.26886H153.302V2.95886H151.002V2.09386H156.627ZM164.152 9.26886H163.352C163.262 9.26886 163.187 9.24719 163.127 9.20386C163.07 9.15719 163.029 9.09719 163.002 9.02386L162.357 7.33886H159.172L158.527 9.02386C158.504 9.08719 158.46 9.14386 158.397 9.19386C158.337 9.24386 158.264 9.26886 158.177 9.26886H157.382L160.242 2.09386H161.287L164.152 9.26886ZM159.457 6.59886H162.072L160.987 3.77386C160.95 3.68386 160.912 3.58053 160.872 3.46386C160.835 3.34386 160.799 3.21386 160.762 3.07386C160.725 3.21386 160.689 3.34386 160.652 3.46386C160.615 3.58386 160.579 3.68886 160.542 3.77886L159.457 6.59886ZM171.991 2.09386V9.26886H170.956V2.90386H168.651C168.604 3.82053 168.541 4.61719 168.461 5.29386C168.381 5.96719 168.284 6.54219 168.171 7.01886C168.061 7.49553 167.934 7.88553 167.791 8.18886C167.647 8.48886 167.491 8.72386 167.321 8.89386C167.151 9.06386 166.967 9.18053 166.771 9.24386C166.574 9.30719 166.367 9.33886 166.151 9.33886C165.961 9.33886 165.816 9.32053 165.716 9.28386C165.616 9.25053 165.566 9.20053 165.566 9.13386V8.47886H165.921C166.051 8.47886 166.179 8.45386 166.306 8.40386C166.436 8.35386 166.561 8.25219 166.681 8.09886C166.801 7.94553 166.914 7.72553 167.021 7.43886C167.127 7.15219 167.224 6.77219 167.311 6.29886C167.401 5.82553 167.476 5.24553 167.536 4.55886C167.599 3.87219 167.647 3.05053 167.681 2.09386H171.991Z" fill="#9A9A9A"/>
</svg>
