<svg width="118" height="186" viewBox="0 0 118 186" fill="none" xmlns="http://www.w3.org/2000/svg">
<path d="M66.4401 115.82V55.0851C66.4401 49.3498 66.8256 43.0152 67.5965 36.0814L9.90478 115.82H66.4401ZM117.451 115.82V134.182C117.451 135.894 116.894 137.392 115.78 138.676C114.667 139.874 113.082 140.474 111.026 140.474H94.0654V185.8H66.4401V140.474H-11.9385C-14.08 140.474 -15.9647 139.832 -17.5922 138.547C-19.2197 137.178 -20.2476 135.509 -20.6759 133.54L-24.0165 117.489L63.9988 0H94.0654V115.82H117.451Z" fill="url(#paint0_linear)" fill-opacity="0.64"/>
<defs>
<linearGradient id="paint0_linear" x1="46.717" y1="0" x2="46.717" y2="185.8" gradientUnits="userSpaceOnUse">
<stop stop-color="#82DAFF"/>
<stop offset="0.622964" stop-color="#B9D9FF"/>
</linearGradient>
</defs>
</svg>
